{
    "$id": "http://supermodel.io/drmikecrowe/trafficEnums",
    "$schema": "http://json-schema.org/draft-07/schema#",
    "title": "traffic-enums",
    "description": "Allowed enums for traffic",
    "type": "string",
    "enum": [
        "no-data",
        "minimal-traffic",
        "medium-traffic",
        "high-traffic"
    ]
}