[
    {
        "credibility": "high-credibility",
        "code": "H",
        "name": "Credibility: High Credibility",
        "pretty": "credibility"
    },
    {
        "credibility": "medium-credibility",
        "code": "M",
        "name": "Credibility: Medium Credibility",
        "pretty": "credibility"
    },
    {
        "credibility": "low-credibility",
        "code": "L",
        "name": "Credibility: Low Credibility",
        "pretty": "credibility"
    },
    {
        "credibility": "n/a",
        "code": "NA",
        "name": "Credibility: N/A",
        "pretty": "credibility"
    }
]